…
    ```{r}
    write_rds(challenge, "challenge.rds")
    read_rds("challenge.rds")
    ```
  
1.  The feather package implements a fast binary file format that can
    be shared across programming languages:
    
    •	feather 包实现了一种快速二进制格式，可以在多个编程语言间共享：
    
    ```{r, eval = FALSE}
    library(feather)
    write_feather(challenge, "challenge.feather")
    read_feather("challenge.feather")
    #> # A tibble: 2,000 x 2
    #>       x      y
    #>   <dbl> <date>
    #> 1   404   <NA>
    #> 2  4172   <NA>
    #> 3  3004   <NA>
    #> 4   787   <NA>
    #> 5    37   <NA>
    #> 6  2332   <NA>
    #> # ... with 1,994 more rows
    ```
…
